…
    ## [1]   12 1952 2007

``` r
# Try the same for "country"
select(gapminder, country) %>%
  distinct() -> countries

countries
```

    ## # A tibble: 142 x 1
    ##    country    
    ##    <fct>      
    ##  1 Afghanistan
    ##  2 Albania    
    ##  3 Algeria    
    ##  4 Angola     
    ##  5 Argentina  
    ##  6 Australia  
    ##  7 Austria    
    ##  8 Bahrain    
    ##  9 Bangladesh 
    ## 10 Belgium    
    ## # ... with 132 more rows
…
